{
  "stars": {
    "number": 0,
    "basePrice": 2,
    "baseMicrowave": 2,
    "atomGain": 2,
    "name": "star"
  },
  "constellations": {
    "number": 0,
    "basePrice": 200,
    "baseMicrowave": 200,
    "atomGain": 40,
    "name": "Constellation"
  },
  "galaxies": {
    "number": 0,
    "basePrice": 20000,
    "baseMicrowave": 20000,
    "atomGain": 2000,
    "name": "Galaxy"
  },
  "nebulas": {
    "number": 0,
    "baseMicrowave": 200000,
    "basePrice": 200000,
    "atomGain": 20000,
    "name": "Nebula"
  }
}
